{
    "app-id": "org.gnome.design.AppIconPreviewDevel",
    "runtime" : "org.gnome.Platform",
    "runtime-version" : "master",
    "sdk" : "org.gnome.Sdk",
    "sdk-extensions" : [
        "org.freedesktop.Sdk.Extension.rust-stable"
    ],
    "command" : "app-icon-preview",
    "finish-args" : [
        "--env=RUST_LOG=app_icon_preview=debug",
        "--share=ipc",
        "--socket=fallback-x11",
        "--socket=wayland",
        "--device=dri",
        "--filesystem=home"
    ],
    "build-options" : {
        "append-path" : "/usr/lib/sdk/rust-stable/bin",
        "build-args" : [
            "--share=network"
        ]
    },
    "modules" : [
        {
            "name" : "app-icon-preview",
            "buildsystem" : "meson",
            "config-opts" : [
                "-Dprofile=development"
            ],
            "sources": [
                {
                    "type": "dir",
                    "path": "../"
                }
            ]
        }
    ]
}
